%YAML 1.1
%TAG !u! tag:unity3d.com,2011:
--- !u!21 &2100000
Material:
  serializedVersion: 6
  m_ObjectHideFlags: 0
  m_CorrespondingSourceObject: {fileID: 0}
  m_PrefabInstance: {fileID: 0}
  m_PrefabAsset: {fileID: 0}
  m_Name: Water
  m_Shader: {fileID: -6465566751694194690, guid: fa48dda6ed7e7424abc8cdbfcec20725, type: 3}
  m_ShaderKeywords: 
  m_LightmapFlags: 4
  m_EnableInstancingVariants: 0
  m_DoubleSidedGI: 0
  m_CustomRenderQueue: -1
  stringTagMap:
    MotionVector: User
  disabledShaderPasses:
  - MOTIONVECTORS
  m_SavedProperties:
    serializedVersion: 3
    m_TexEnvs: []
    m_Floats:
    - Vector1_1425F872: 0.1
    - Vector1_3147757A: 6
    - Vector1_8C1285F1: 1.2
    - Vector1_D1EA7C2F: 500
    m_Colors:
    - BaseColor: {r: 0.31176573, g: 0.4522371, b: 0.5849056, a: 1}
    - Color_C6763B98: {r: 0.2509804, g: 1.788235, b: 1.811765, a: 0}
  m_BuildTextureStacks: []
